26-04-2024 00:07:41: One or more errors occurred. 
 ----------------------------------------------------------------------------
26-04-2024 00:07:52: Object reference not set to an instance of an object. 
 ----------------------------------------------------------------------------
